Study_Run,Run_ID,Assay_Date,perc_RE_Std_2500,perc_RE_Std_1500,perc_RE_Std_1000,perc_RE_Std_400,perc_RE_Std_160,perc_RE_Std_64.0,perc_RE_Std_25.6,perc_RE_Std_10.2,perc_RE_ULOQ_Std_2500,perc_RE_HQC1_1875,perc_RE_HQC2_1875,perc_RE_MQC1_600,perc_RE_MQC2_600,perc_RE_LQC1_70,perc_RE_LQC2_70,perc_RE_LLOQ_Std_25.6,perc_RE_Avg_HQC_1875,perc_RE_Avg_MQC_600,perc_RE_Avg_LQC_70,Std_2500,Std_1500,Std_1000,Std_400,Std_160,Std_64.0,Std_25.6,Std_10.2,ULOQ_Std_2500,HQC1_1875,HQC2_1875,MQC1_600,MQC2_600,LQC1_70,LQC2_70,LLOQ_Std_25.6,Avg_HQC_1875,Avg_MQC_600,Avg_LQC_70,Status,Batch
186461run1,1,6/20/2018,101.1767724,96.32486467,103.327281,101.8723375,97.94750625,97.81809375,103.8957813,98.77098039,50.6960604,50.40018489,50.40018489,49.55614167,49.55614167,47.74984762,47.74984762,49.53683594,50.40018489,49.55614167,47.74984762,2529.41931,1444.87297,1033.27281,407.48935,156.71601,62.60358,26.59732,10.07464,1267.40151,945.0034667,945.0034667,297.33685,297.33685,33.42489333,33.42489333,12.68143,945.0034667,297.33685,33.42489333,FAIL,186461
186461run2a,1,6/21/2018,99.76,100.8,99.8,99.5,100.625,99.6875,100,0,99.76,87.76888889,87.76888889,97.88888889,97.88888889,92.38095238,92.38095238,100,87.76888889,97.88888889,92.38095238,2494,1512,998,398,161,63.8,25.6,[16],2494,1645.666667,1645.666667,587.3333333,587.3333333,64.66666667,64.66666667,25.6,1645.666667,587.3333333,64.66666667,PASS,186461
186461run3,1,6/22/2018,99.8,101.4666667,98.2,101.25,98.75,102.1875,98.046875,100.9803922,83.73333333,87.18222222,87.18222222,99,99,100.4761905,100.4761905,106.9010417,87.18222222,99,100.4761905,2495,1522,982,405,158,65.4,25.1,10.3,2093.333333,1634.666667,1634.666667,594,594,70.33333333,70.33333333,27.36666667,1634.666667,594,70.33333333,PASS,186461
186461run4,2,6/22/2018,98.6,100.6666667,102.6,100.25,96.875,98.75,106.25,96.47058824,88.52,91.84,91.84,103.5555556,103.5555556,96.23809524,96.23809524,100.78125,91.84,103.5555556,96.23809524,2465,1510,1026,401,155,63.2,27.2,9.84,2213,1722,1722,621.3333333,621.3333333,67.36666667,67.36666667,25.8,1722,621.3333333,67.36666667,PASS,186461
186461run5,3,6/22/2018,97.8,103.2,100,101.25,96.25,99.21875,105.078125,97.05882353,89.4,92.07111111,92.07111111,100.3333333,100.3333333,97.23809524,97.23809524,105.9895833,92.07111111,100.3333333,97.23809524,2445,1548,1000,405,154,63.5,26.9,9.9,2235,1726.333333,1726.333333,602,602,68.06666667,68.06666667,27.13333333,1726.333333,602,68.06666667,PASS,186461
186461run6,4,6/22/2018,98.84,102.4,99,101,99.375,97.34375,104.6875,97.45098039,85.73333333,90.06222222,90.06222222,100.7222222,100.7222222,94.76190476,94.76190476,99.47916667,90.06222222,100.7222222,94.76190476,2471,1536,990,404,159,62.3,26.8,9.94,2143.333333,1688.666667,1688.666667,604.3333333,604.3333333,66.33333333,66.33333333,25.46666667,1688.666667,604.3333333,66.33333333,PASS,186461
186461run7,1,6/26/2018,99.84,100.2666667,100.4,99,100,102.34375,97.265625,101.9607843,99.84,88.8,88.10666667,102.1666667,103.3333333,98.28571429,96.14285714,97.265625,88.45333333,102.75,97.21428571,2496,1504,1004,396,160,65.5,24.9,10.4,2496,1665,1652,613,620,68.8,67.3,24.9,1658.5,616.5,68.05,PASS,186461
186461run8,2,6/26/2018,101.76,97.2,100.9,100.75,100.625,98.59375,100.78125,100,101.76,87.41333333,85.6,96.33333333,98.66666667,100.5714286,100,100.78125,86.50666667,97.5,100.2857143,2544,1458,1009,403,161,63.1,25.8,10.2,2544,1639,1605,578,592,70.4,70,25.8,1622,585,70.2,PASS,186461
186461run9,3,6/26/2018,98.4,101.1333333,102.1,100.25,97.5,97.5,107.421875,95.88235294,98.4,92.05333333,90.45333333,103.5,102.3333333,94,101.2857143,107.421875,91.25333333,102.9166667,97.64285714,2460,1517,1021,401,156,62.4,27.5,9.78,2460,1726,1696,621,614,65.8,70.9,27.5,1711,617.5,68.35,PASS,186461
186461run10,4,6/26/2018,98.6,103.0666667,98.7,100.5,99.375,98.4375,103.515625,98.03921569,85.73333333,86.80888889,86.80888889,99.61111111,99.61111111,98.19047619,98.19047619,109.2447917,86.80888889,99.61111111,98.19047619,2465,1546,987,402,159,63,26.5,10,2143.333333,1627.666667,1627.666667,597.6666667,597.6666667,68.73333333,68.73333333,27.96666667,1627.666667,597.6666667,68.73333333,PASS,186461
186461run11,5,6/26/2018,100.28,99.33333333,100.4,100,100,99.0625,101.171875,98.03921569,86.85333333,89.10222222,89.10222222,100.7222222,100.7222222,98.47619048,98.47619048,111.1979167,89.10222222,100.7222222,98.47619048,2507,1490,1004,400,160,63.4,25.9,10,2171.333333,1670.666667,1670.666667,604.3333333,604.3333333,68.93333333,68.93333333,28.46666667,1670.666667,604.3333333,68.93333333,PASS,186461
186461run12,6,6/26/2018,99.2,101.4,99.8,99.75,100,98.28125,103.125,95.68627451,87.192,87.12533333,87.12533333,99.93333333,99.93333333,94.88571429,94.88571429,97.5,87.12533333,99.93333333,94.88571429,2480,1521,998,399,160,62.9,26.4,9.76,2179.8,1633.6,1633.6,599.6,599.6,66.42,66.42,24.96,1633.6,599.6,66.42,PASS,186461
186461run13,1,6/27/2018,98.96,102.4666667,98.8,99.5,101.25,98.90625,101.171875,99.01960784,98.96,82.98666667,87.94666667,94.33333333,98.16666667,99.14285714,93.57142857,101.171875,85.46666667,96.25,96.35714286,2474,1537,988,398,162,63.3,25.9,10.1,2474,1556,1649,566,589,69.4,65.5,25.9,1602.5,577.5,67.45,PASS,186461
186461run14,2,6/27/2018,99.88,99.93333333,100.1,101.5,98.125,99.21875,102.34375,99.01960784,99.88,92.37333333,84.16,100.3333333,96,98,89.28571429,102.34375,88.26666667,98.16666667,93.64285714,2497,1499,1001,406,157,63.5,26.2,10.1,2497,1732,1578,602,576,68.6,62.5,26.2,1655,589,65.55,PASS,186461
186461run15,3,6/27/2018,100.32,99.46666667,99.9,101,100,97.96875,102.734375,99.01960784,100.32,85.81333333,88.16,98,100,95,85.57142857,102.734375,86.98666667,99,90.28571429,2508,1492,999,404,160,62.7,26.3,10.1,2508,1609,1653,588,600,66.5,59.9,26.3,1631,594,63.2,PASS,186461
186461run16,4,6/27/2018,99.08,100.5333333,101.5,99.5,99.375,98.90625,103.125,98.03921569,99.08,91.36,85.97333333,95.66666667,99.83333333,93.71428571,95.85714286,103.125,88.66666667,97.75,94.78571429,2477,1508,1015,398,159,63.3,26.4,10,2477,1713,1612,574,599,65.6,67.1,26.4,1662.5,586.5,66.35,PASS,186461
186461run17,5,6/27/2018,99.08,100.7333333,101,99.75,98.125,101.71875,100,99.01960784,99.08,88.85333333,84.69333333,98.16666667,95.5,93.57142857,97,100,86.77333333,96.83333333,95.28571429,2477,1511,1010,399,157,65.1,25.6,10.1,2477,1666,1588,589,573,65.5,67.9,25.6,1627,581,66.7,PASS,186461
186461run18,6,6/27/2018,99.04,100.7333333,101.1,100,98.75,98.59375,103.515625,98.03921569,99.04,85.06666667,87.52,97.33333333,95.83333333,96.57142857,94,103.515625,86.29333333,96.58333333,95.28571429,2476,1511,1011,400,158,63.1,26.5,10,2476,1595,1641,584,575,67.6,65.8,26.5,1618,579.5,66.7,PASS,186461
186461run19a,1,6/28/2018,100.8,100.4666667,97.4,102.5,0,99.21875,100,100,100.8,93.54666667,89.44,103.1666667,103.3333333,106.5714286,101.2857143,100,91.49333333,103.25,103.9285714,2520,1507,974,410,[5],63.5,25.6,10.2,2520,1754,1677,619,620,74.6,70.9,25.6,1715.5,619.5,72.75,PASS,186461
186461run20,1,7/20/2018,99.72,101.3333333,98.2,102.25,98.75,98.28125,103.90625,96.17647059,99.72,100.16,89.92,107.1666667,96,101,99.14285714,103.90625,95.04,101.5833333,100.0714286,2493,1520,982,409,158,62.9,26.6,9.81,2493,1878,1686,643,576,70.7,69.4,26.6,1782,609.5,70.05,PASS,186461
186461run21,2,7/20/2018,100.24,101.4666667,97.1,101.75,101.875,96.875,102.734375,98.03921569,100.24,93.81333333,99.04,101,105.5,100.1428571,102,102.734375,96.42666667,103.25,101.0714286,2506,1522,971,407,163,62,26.3,10,2506,1759,1857,606,633,70.1,71.4,26.3,1808,619.5,70.75,PASS,186461
186461run22,3,7/20/2018,100.4,100.2,98.6,101.5,100,98.59375,101.5625,99.01960784,100.4,95.57333333,86.4,100.3333333,94.16666667,99,94.42857143,101.5625,90.98666667,97.25,96.71428571,2510,1503,986,406,160,63.1,26,10.1,2510,1792,1620,602,565,69.3,66.1,26,1706,583.5,67.7,PASS,186461
186461run23,1,7/27/2018,95.68,105.5333333,101.8,95.5,104.375,97.5,101.953125,99.01960784,95.68,93.76,78.24,102.8333333,92.5,106.1428571,96.14285714,101.953125,86,97.66666667,101.1428571,2392,1583,1018,382,167,62.4,26.1,10.1,2392,1758,1467,617,555,74.3,67.3,26.1,1612.5,586,70.8,PASS,186461
188076,1,9/17/2019,101.8,98.27,99.5,101.75,100,97.66,104.69,94.9,101.8,106.83,95.89,118.17,112,130,106.43,104.69,101.36,115.08,118.21,2545,1474,995,407,160,62.5,26.8,9.68,2545,2003,1798,709,672,91,74.5,26.8,1900.5,690.5,82.75,PASS,188076
188076,2,9/17/2019,100.88,99.67,98.6,102.25,99.38,97.81,103.12,97.55,100.88,108.48,98.88,117,110.5,131.14,113.71,103.12,103.68,113.75,122.43,2522,1495,986,409,159,62.6,26.4,9.95,2522,2034,1854,702,663,91.8,79.6,26.4,1944,682.5,85.7,PASS,188076
188076,3,11/19/2019,102.12,99.33,98.3,100.25,101.25,100.78,94.14,95.29,102.12,111.52,105.6,122.17,117.83,134.86,117.43,94.14,108.56,120,126.14,2553,1490,983,401,162,64.5,24.1,9.72,2553,2091,1980,733,707,94.4,82.2,24.1,2035.5,720,88.3,PASS,188076
188076,4,11/19/2019,102.04,100.53,97.3,100,102.5,99.06,96.87,104.9,102.04,109.23,103.2,115.83,112.17,121.29,114,96.87,106.21,114,117.64,2551,1508,973,400,164,63.4,24.8,10.7,2551,2048,1935,695,673,84.9,79.8,24.8,1991.5,684,82.35,PASS,188076
188076,5,11/26/2019,100.24,96.93,102.8,105.25,96.88,92.5,119.14,92.65,100.24,94.61,96.16,101.33,104.33,101.43,96.14,119.14,95.68,104.94,98.86,2506,1454,1028,421,155,59.2,30.5,9.45,2506,1774,1803,608,626,71,67.3,30.5,1794,629.6666667,69.2,PASS,188076
188076,6,11/26/2019,104.8,95.6,100.9,99.75,101.88,99.06,99.61,100,104.8,90.99,98.24,95,100.33,100,97.71,99.61,95.43,99.39,100.62,2620,1434,1009,399,163,63.4,25.5,10.2,2620,1706,1842,570,602,70,68.4,25.5,1789.333333,596.3333333,70.43333333,PASS,188076
188076,7,11/26/2019,106.32,96.2,98.2,103.25,98.75,99.84,99.61,100,106.32,100.85,103.04,99.83,105.33,103.86,103.14,99.61,103.68,104.83,105.86,2658,1443,982,413,158,63.9,25.5,10.2,2658,1891,1932,599,632,72.7,72.2,25.5,1944,629,74.1,PASS,188076
188076,8,11/26/2019,111.2,94.6,97.5,100.75,103.75,97.66,99.22,100.98,111.2,104.53,108,99.33,105,102.86,102.57,99.22,109.49,105.56,106.62,2780,1419,975,403,166,62.5,25.4,10.3,2780,1960,2025,596,630,72,71.8,25.4,2053,633.3333333,74.63333333,PASS,188076
188076,9a,11/26/2019,111.76,94.53,97.4,100.75,103.75,97.81,99.22,100.98,111.76,108.21,114.67,100.33,111.67,105.86,114.29,99.22,111.44,106,110.07,2794,1418,974,403,166,62.6,25.4,10.3,2794,2029,2150,602,670,74.1,80,25.4,2089.5,636,77.05,PASS,188076
188076,10,3/11/2020,102.8,98.67,98.2,101.5,99.38,102.34,93.75,104.9,102.8,114.83,109.44,113,113.17,123.71,99.14,93.75,112.13,113.08,111.43,2570,1480,982,406,159,65.5,24,10.7,2570,2153,2052,678,679,86.6,69.4,24,2102.5,678.5,78,PASS,188076
188076,11,3/11/2020,97.48,102.87,100.9,98.75,100,99.22,101.95,99.02,97.48,109.01,108.59,120.33,118.83,114.29,94.29,101.95,108.8,119.58,104.29,2437,1543,1009,395,160,63.5,26.1,10.1,2437,2044,2036,722,713,80,66,26.1,2040,717.5,73,PASS,188076
188076,12,3/11/2020,103.92,99.33,95.7,102.75,103.12,95.47,103.12,98.04,103.92,102.93,106.24,118.17,113.5,122,102.14,103.12,104.59,115.83,112.07,2598,1490,957,411,165,61.1,26.4,10,2598,1930,1992,709,681,85.4,71.5,26.4,1961,695,78.45,PASS,188076
188076,13,3/23/2020,103.48,98.93,98.1,98.75,103.75,100.31,96.48,101.96,103.48,100.59,100.75,108.67,109.5,117.71,115.57,96.48,100.67,109.08,116.64,2587,1484,981,395,166,64.2,24.7,10.4,2587,1886,1889,652,657,82.4,80.9,24.7,1887.5,654.5,81.65,PASS,188076
188076,14,3/23/2020,110.56,98.27,93.8,100,104.38,105.62,86.72,106.86,110.56,102.83,105.55,108.67,111.17,118.57,121.86,86.72,104.19,109.92,120.21,2764,1474,938,400,167,67.6,22.2,10.9,2764,1928,1979,652,667,83,85.3,22.2,1953.5,659.5,84.15,PASS,188076
188076,15,3/23/2020,99.88,101.2,98.4,100.5,103.12,94.84,105.47,97.75,99.88,109.07,109.39,113.5,113.83,114.14,112.43,105.47,109.23,113.67,113.29,2497,1518,984,402,165,60.7,27,9.97,2497,2045,2051,681,683,79.9,78.7,27,2048,682,79.3,PASS,188076
188076,16,3/23/2020,109.92,97.07,94.7,102.5,105.62,93.75,104.69,95.98,109.92,88.37,104.16,111,109.33,122.86,124.14,104.69,96.27,110.17,123.5,2748,1456,947,410,169,60,26.8,9.79,2748,1657,1953,666,656,86,86.9,26.8,1805,661,86.45,FAIL,188076
188076,17,3/24/2020,101.76,98.27,99.2,102.5,99.38,97.97,102.73,98.04,101.76,96.8,103.84,107.5,115.83,109.14,116.14,102.73,100.32,111.67,112.64,2544,1474,992,410,159,62.7,26.3,10,2544,1815,1947,645,695,76.4,81.3,26.3,1881,670,78.85,PASS,188076
188076,18,3/24/2020,105.4,99.67,95.5,100.25,101.25,105.16,93.36,103.92,105.4,100.21,106.67,105.83,110.17,110.57,118.29,93.36,103.44,108,114.43,2635,1495,955,401,162,67.3,23.9,10.6,2635,1879,2000,635,661,77.4,82.8,23.9,1939.5,648,80.1,PASS,188076
188076,19,3/24/2020,102.8,97.53,99.5,101.5,98.75,102.19,96.87,101.96,102.8,96.05,110.35,104.67,107,109.71,114.43,96.87,103.2,105.83,112.07,2570,1463,995,406,158,65.4,24.8,10.4,2570,1801,2069,628,642,76.8,80.1,24.8,1935,635,78.45,PASS,188076
188076,20,4/16/2020,100.2,101.53,97,103.25,100.62,93.91,112.5,89.51,100.2,106.4,119.36,121.33,118.67,117.86,119.86,112.5,112.88,120,118.86,2505,1523,970,413,161,60.1,28.8,9.13,2505,1995,2238,728,712,82.5,83.9,28.8,2116.5,720,83.2,PASS,188076
188076,21,4/16/2020,96.28,105.73,99.2,104,96.88,92.19,117.58,95.88,96.28,103.73,119.79,119.83,125.33,89.29,111.71,117.58,111.76,122.58,100.5,2407,1586,992,416,155,59,30.1,9.78,2407,1945,2246,719,752,62.5,78.2,30.1,2095.5,735.5,70.35,PASS,188076
188076,22,4/16/2020,101.08,100.47,97.7,101.75,99.38,100.31,99.22,95.88,101.08,103.04,110.99,117.17,112.83,110.86,112,99.22,107.01,115,111.43,2527,1507,977,407,159,64.2,25.4,9.78,2527,1932,2081,703,677,77.6,78.4,25.4,2006.5,690,78,PASS,188076
188076,23,4/16/2020,101.2,101.07,96.4,103.5,100,97.34,103.12,98.04,101.2,107.63,112.53,119.5,115.17,107.57,109.29,103.12,110.08,117.33,108.43,2530,1516,964,414,160,62.3,26.4,10,2530,2018,2110,717,691,75.3,76.5,26.4,2064,704,75.9,PASS,188076
188076,24a,5/19/2020,106.8,96.47,97.1,102.25,102.5,96.72,101.17,NA,106.8,105.07,98.4,101.5,103.5,115.14,88.57,101.17,101.85,100.89,99.57,2670,1447,971,409,164,61.9,25.9,NA,2670,1970,1845,609,621,80.6,62,25.9,1909.666667,605.3333333,69.7,PASS,188076
188076,25a,5/19/2020,102.4,99.27,98.8,100,101.88,97.5,99.22,NA,102.4,96.27,94.29,98.17,102.83,113.86,94,99.22,94.26,97.83,100.76,2560,1489,988,400,163,62.4,25.4,NA,2560,1805,1768,589,617,79.7,65.8,25.4,1767.333333,587,70.53333333,FAIL,188076
188076,26b,5/19/2020,121.28,97.13,91.2,102.5,108.12,94.37,100,NA,121.28,97.81,92.11,93.17,98,99.43,93.71,100,102.36,97.61,101.38,3032,1457,912,410,173,60.4,25.6,NA,3032,1834,1727,559,588,69.6,65.6,25.6,1919.333333,585.6666667,70.96666667,PASS,188076
188076,27,5/19/2020,110.28,94.6,97.6,102.5,102.5,97.03,100.39,88.04,110.28,102.99,99.41,100.33,105.67,100.57,92.86,100.39,103.32,105.22,96.14,2757,1419,976,410,164,62.1,25.7,8.98,2757,1931,1864,602,634,70.4,65,25.7,1937.333333,631.3333333,67.3,PASS,188076
188076,28,5/19/2020,108.8,95.47,97.9,101.25,103.75,96.72,100.78,98.04,108.8,103.68,105.71,100.17,109.5,98.14,94.43,100.78,104.69,104.83,96.29,2720,1432,979,405,166,61.9,25.8,10,2720,1944,1982,601,657,68.7,66.1,25.8,1963,629,67.4,PASS,188076
188076,29,5/20/2020,121.56,97.33,91.3,103.5,103.75,98.12,98.44,100,121.56,96.8,93.23,100,95.67,118.43,101,98.44,108.64,101.83,113.19,3039,1460,913,414,166,62.8,25.2,10.2,3039,1815,1748,600,574,82.9,70.7,25.2,2037,611,79.23333333,PASS,188076
188076,30,5/20/2020,119.92,96.67,93.3,102.75,98.75,108.44,90.62,106.86,119.92,93.92,92.05,100.33,95,111,105.57,90.62,104.21,99.28,112.24,2998,1450,933,411,158,69.4,23.2,10.9,2998,1761,1726,602,570,77.7,73.9,23.2,1954,595.6666667,78.56666667,PASS,188076
188076,31,5/20/2020,110.92,95.53,97.4,99.25,103.75,101.72,93.36,101.96,110.92,96.64,96.59,101.33,97.83,110.29,104.57,93.36,102.86,103.17,111.29,2773,1433,974,397,166,65.1,23.9,10.4,2773,1812,1811,608,587,77.2,73.2,23.9,1928.666667,619,77.9,FAIL,188076
188076,32,5/20/2020,118.84,94.53,95.3,100.25,101.88,107.19,92.58,103.92,118.84,91.52,87.2,97.5,95.67,101.71,96.14,92.58,95.64,97.83,100.57,2971,1418,953,401,163,68.6,23.7,10.6,2971,1716,1635,585,574,71.2,67.3,23.7,1793.333333,587,70.4,PASS,188076
188076,33,5/28/2020,107.52,95.13,98.4,101.5,103.12,96.72,100.78,95.69,107.52,89.55,99.57,102,104.33,97.14,105.43,100.78,95.77,103.61,100.67,2688,1427,984,406,165,61.9,25.8,9.76,2688,1679,1867,612,626,68,73.8,25.8,1795.666667,621.6666667,70.46666667,PASS,188076
188076,34,5/28/2020,113.8,93.73,96.5,102.25,101.25,104.06,89.84,100.98,113.8,93.55,91.2,102.5,102,92,100.43,89.84,97.42,104.94,100.95,2845,1406,965,409,162,66.6,23,10.3,2845,1754,1710,615,612,64.4,70.3,23,1826.666667,629.6666667,70.66666667,PASS,188076
188076,35a,5/28/2020,99.44,98.87,101.7,102.25,100,91.72,124.61,86.96,99.44,92.59,100.21,106.83,105.67,104,92.71,124.61,98.33,108.06,100.81,2486,1483,1017,409,160,58.7,31.9,8.87,2486,1736,1879,641,634,72.8,64.9,31.9,1843.666667,648.3333333,70.56666667,PASS,188076
188076,36a,5/28/2020,97.88,99.2,104.1,103,99.38,88.59,131.64,93.53,97.88,88.48,92.75,103.83,106.33,92.86,85.86,131.64,95.06,110.22,91.81,2447,1488,1041,412,159,56.7,33.7,9.54,2447,1659,1739,623,638,65,60.1,33.7,1782.333333,661.3333333,64.26666667,FAIL,188076
188076,37,6/18/2020,102.12,97.8,99.8,101.75,98.75,100,100.39,100,102.12,98.77,103.36,97.33,101.33,107.43,102.57,100.39,101.07,99.33,105,2553,1467,998,407,158,64,25.7,10.2,2553,1852,1938,584,608,75.2,71.8,25.7,1895,596,73.5,PASS,188076
188076,38,6/18/2020,103.2,97.2,99.4,101.75,100,99.53,100,100,103.2,97.28,92.85,97.83,98.83,107.43,105.86,100,97.12,99.72,106.19,2580,1458,994,407,160,63.7,25.6,10.2,2580,1824,1741,587,593,75.2,74.1,25.6,1821,598.3333333,74.33333333,PASS,188076
188076,39,6/18/2020,101.36,98.67,99,103.75,96.25,101.88,100,99.02,101.36,94.24,95.04,95.33,96.83,107.29,103.14,100,97.19,97.61,103.19,2534,1480,990,415,154,65.2,25.6,10.1,2534,1767,1782,572,581,75.1,72.2,25.6,1822.333333,585.6666667,72.23333333,PASS,188076
188076,40,6/18/2020,100.24,98.6,101.5,101,97.5,103.12,98.44,100,100.24,90.56,97.97,98.33,95.67,108.57,104.71,98.44,97.12,98.22,103.38,2506,1479,1015,404,156,66,25.2,10.2,2506,1698,1837,590,574,76,73.3,25.2,1821,589.3333333,72.36666667,PASS,188076
188076,41,6/18/2020,107.2,93.8,99.6,103.5,98.12,103.28,96.87,100.98,107.2,94.56,94.88,93.67,96,108.43,106.57,96.87,96.76,97.5,107.1,2680,1407,996,414,157,66.1,24.8,10.3,2680,1773,1779,562,576,75.9,74.6,24.8,1814.333333,585,74.96666667,PASS,188076
188076,42,6/19/2020,99.12,99,102.2,102.75,96.88,96.72,106.64,98.04,99.12,87.84,106.08,100.83,119.5,109.71,115.29,106.64,96.96,110.17,112.5,2478,1485,1022,411,155,61.9,27.3,10,2478,1647,1989,605,717,76.8,80.7,27.3,1818,661,78.75,PASS,188076
188076,43,6/19/2020,97.08,102.47,101.1,101,96.88,100.31,102.34,99.02,97.08,86.61,97.71,99.33,109.33,111,113.86,102.34,92.16,104.33,112.43,2427,1537,1011,404,155,64.2,26.2,10.1,2427,1624,1832,596,656,77.7,79.7,26.2,1728,626,78.7,PASS,188076
188076,44,6/19/2020,98.08,100.73,101.7,100.5,98.12,98.59,103.12,99.02,98.08,89.44,101.55,97.67,111.83,100.71,112.29,103.12,95.49,104.75,106.5,2452,1511,1017,402,157,63.1,26.4,10.1,2452,1677,1904,586,671,70.5,78.6,26.4,1790.5,628.5,74.55,PASS,188076
188076,45a,6/22/2020,96.48,102.47,109,106,81.25,126.88,NA,100,96.48,99.09,101.17,108.83,114,70.86,66.14,NA,100.13,111.42,68.5,2412,1537,1090,424,130,81.2,NA,10.2,2412,1858,1897,653,684,49.6,46.3,NA,1877.5,668.5,47.95,FAIL,188076
188076,46a,6/22/2020,97.36,100.67,104,106.25,90.62,NA,105.47,99.02,97.36,105.76,100.16,108.33,108.67,82,75.43,105.47,102.96,108.5,78.71,2434,1510,1040,425,145,NA,27,10.1,2434,1983,1878,650,652,57.4,52.8,27,1930.5,651,55.1,FAIL,188076
188076,47a,6/22/2020,96.92,101.27,105.7,103.75,90.62,NA,106.64,99.02,96.92,94.88,103.95,107.67,115.67,84,85.14,106.64,99.41,111.67,84.57,2423,1519,1057,415,145,NA,27.3,10.1,2423,1779,1949,646,694,58.8,59.6,27.3,1864,670,59.2,FAIL,188076
188076,48a,6/23/2020,99.76,102.27,96.7,103.75,98.75,98.28,103.12,97.65,99.76,88.43,91.36,108,105.67,108.71,97,103.12,89.89,106.83,102.86,2494,1534,967,415,158,62.9,26.4,9.96,2494,1658,1713,648,634,76.1,67.9,26.4,1685.5,641,72,PASS,188076
188076,49a,6/23/2020,99.04,101.27,99.3,102.25,98.12,98.12,104.3,97.84,99.04,99.57,106.83,107.33,121.83,101.14,97.86,104.3,103.2,114.58,99.5,2476,1519,993,409,157,62.8,26.7,9.98,2476,1867,2003,644,731,70.8,68.5,26.7,1935,687.5,69.65,PASS,188076
188076,50a,6/23/2020,97.52,105.73,97.1,101.5,99.38,97.5,105.08,97.16,97.52,91.68,97.39,102.67,109.83,102.29,106.14,105.08,94.53,106.25,104.21,2438,1586,971,406,159,62.4,26.9,9.91,2438,1719,1826,616,659,71.6,74.3,26.9,1772.5,637.5,72.95,PASS,188076
188076,51a,6/23/2020,100.8,101.13,97.1,101.25,100.62,100.78,97.66,101.96,100.8,95.15,97.07,106.83,112.67,108.86,103.86,97.66,96.11,109.75,106.36,2520,1517,971,405,161,64.5,25,10.4,2520,1784,1820,641,676,76.2,72.7,25,1802,658.5,74.45,PASS,188076
188076,52a,6/24/2020,97.08,103.07,100.8,101,100,93.13,112.11,96.57,97.08,104.05,98.4,117.5,124.17,107,109.14,112.11,101.23,120.83,108.07,2427,1546,1008,404,160,59.6,28.7,9.85,2427,1951,1845,705,745,74.9,76.4,28.7,1898,725,75.65,PASS,188076
188076,53a,7/29/2020,99.96,100.07,99.5,101.5,100.62,96.41,104.3,98.04,99.96,92.11,97.71,106.5,113,106.57,108.29,104.3,94.91,109.75,107.43,2499,1501,995,406,161,61.7,26.7,10,2499,1727,1832,639,678,74.6,75.8,26.7,1779.5,658.5,75.2,PASS,188076
188076,54a,7/29/2020,97.96,103.47,99.3,98.75,101.88,97.97,101.95,99.02,97.96,94.77,98.03,105.17,109.5,105.86,105.14,101.95,96.4,107.33,105.5,2449,1552,993,395,163,62.7,26.1,10.1,2449,1777,1838,631,657,74.1,73.6,26.1,1807.5,644,73.85,PASS,188076
188076,55a,7/29/2020,99.6,101.87,97.7,102.5,100.62,95.16,106.64,97.25,99.6,91.79,97.07,107.33,110.5,108.43,110.14,106.64,94.43,108.92,109.29,2490,1528,977,410,161,60.9,27.3,9.92,2490,1721,1820,644,663,75.9,77.1,27.3,1770.5,653.5,76.5,PASS,188076
188076,56a,7/30/2020,102.64,99,98.5,99.75,101.88,99.38,98.44,93.53,102.64,89.92,97.76,100.17,105.33,109.71,112,98.44,93.84,102.75,110.86,2566,1485,985,399,163,63.6,25.2,9.54,2566,1686,1833,601,632,76.8,78.4,25.2,1759.5,616.5,77.6,PASS,188076
188076,57a,7/30/2020,98.48,100.67,100.7,101.75,98.75,96.88,105.86,97.45,98.48,88.27,97.76,106,109.5,99.14,103.14,105.86,93.01,107.75,101.14,2462,1510,1007,407,158,62,27.1,9.94,2462,1655,1833,636,657,69.4,72.2,27.1,1744,646.5,70.8,PASS,188076
188076,58a,7/30/2020,98.2,101.2,99.9,103.25,96.88,98.28,104.69,97.75,98.2,89.87,103.15,103.17,109.33,98,107.57,104.69,96.51,106.25,102.79,2455,1518,999,413,155,62.9,26.8,9.97,2455,1685,1934,619,656,68.6,75.3,26.8,1809.5,637.5,71.95,PASS,188076
188076,59,8/18/2020,102.04,97.53,99.5,104.25,96.88,99.69,101.95,99.02,102.04,91.47,103.57,101,111.17,103.57,109,101.95,97.52,106.08,106.29,2551,1463,995,417,155,63.8,26.1,10.1,2551,1715,1942,606,667,72.5,76.3,26.1,1828.5,636.5,74.4,PASS,188076
188076,60,8/18/2020,103.44,96.8,98.8,105,98.12,96.25,106.64,96.67,103.44,96.32,103.36,103.17,111,106.86,112.86,106.64,99.84,107.08,109.86,2586,1452,988,420,157,61.6,27.3,9.86,2586,1806,1938,619,666,74.8,79,27.3,1872,642.5,76.9,PASS,188076
188076,61,8/18/2020,101.92,98.33,98.8,103.5,98.12,99.38,101.56,99.02,101.92,86.13,96.96,103.83,111.83,104.43,113.14,101.56,91.55,107.83,108.79,2548,1475,988,414,157,63.6,26,10.1,2548,1615,1818,623,671,73.1,79.2,26,1716.5,647,76.15,PASS,188076
188076,63,10/8/2020,99.04,104.2,96.4,101.75,100,98.12,102.34,98.04,99.04,99.95,117.6,113.17,117.5,118.86,111.43,102.34,108.77,115.33,115.14,2476,1563,964,407,160,62.8,26.2,10,2476,1874,2205,679,705,83.2,78,26.2,2039.5,692,80.6,PASS,188076
188076,64,10/8/2020,98.96,102.2,98.5,102.25,96.88,102.66,99.22,95,98.96,105.55,118.13,108.17,125,111.86,120.71,99.22,111.84,116.58,116.29,2474,1533,985,409,155,65.7,25.4,9.69,2474,1979,2215,649,750,78.3,84.5,25.4,2097,699.5,81.4,PASS,188076
188076,65,10/8/2020,98.8,99.6,102,101.75,96.25,99.53,105.47,95.78,98.8,97.97,112.32,110.67,115.5,109,114.71,105.47,105.15,113.08,111.86,2470,1494,1020,407,154,63.7,27,9.77,2470,1837,2106,664,693,76.3,80.3,27,1971.5,678.5,78.3,PASS,188076
188076,66,11/13/2020,100.68,100.33,99.8,98.5,100.62,104.06,90.62,111.76,100.68,94.19,99.89,103.17,101.5,121.29,110.14,90.62,99.75,103.17,116.29,2517,1505,998,394,161,66.6,23.2,11.4,2517,1766,1873,619,609,84.9,77.1,23.2,1870.333333,619,81.4,PASS,188076
188076,67,11/13/2020,99.64,102,98.2,100.25,100,101.72,97.27,84.51,99.64,95.84,90.24,107.33,104.67,108.14,105.57,97.27,100.85,110.89,112.67,2491,1530,982,401,160,65.1,24.9,8.62,2491,1797,1692,644,628,75.7,73.9,24.9,1891,665.3333333,78.86666667,PASS,188076
188076,68,11/13/2020,100.8,102.4,96.5,101.5,101.25,98.44,100,97.84,100.8,102.99,104.05,107,106.17,113,121.57,100,106.01,108.22,117.38,2520,1536,965,406,162,63,25.6,9.98,2520,1931,1951,642,637,79.1,85.1,25.6,1987.666667,649.3333333,82.16666667,PASS,188076
188076,69,11/13/2020,99.44,103.4,96.6,102,101.25,95.47,108.98,83.63,99.44,97.76,96.37,99.83,102.33,108.86,124,108.98,98.67,103.11,115.86,2486,1551,966,408,162,61.1,27.9,8.53,2486,1833,1807,599,614,76.2,86.8,27.9,1850,618.6666667,81.1,PASS,188076
188076,70,11/17/2020,99,105.2,95.5,102,100.62,97.66,102.34,97.65,99,98.35,107.68,110.17,117.17,117.14,121.14,102.34,103.01,113.67,119.14,2475,1578,955,408,161,62.5,26.2,9.96,2475,1844,2019,661,703,82,84.8,26.2,1931.5,682,83.4,PASS,188076
188076,71,11/17/2020,99.88,103,96.8,101,100.62,100.78,96.87,99.02,99.88,97.6,101.76,108.5,114.67,114.71,119.86,96.87,99.68,111.58,117.29,2497,1545,968,404,161,64.5,24.8,10.1,2497,1830,1908,651,688,80.3,83.9,24.8,1869,669.5,82.1,PASS,188076
188076,72,11/17/2020,97.72,106.27,96.2,100.75,103.12,92.19,117.97,85.2,97.72,97.01,98.72,108,112.5,121.29,123.86,117.97,97.87,110.25,122.57,2443,1594,962,403,165,59,30.2,8.69,2443,1819,1851,648,675,84.9,86.7,30.2,1835,661.5,85.8,FAIL,188076
188076,73,1/5/2021,99.48,102.93,98,99.5,98.12,110,89.45,108.82,99.48,97.76,104.8,107.67,110.83,113.57,110.86,89.45,101.28,109.25,112.21,2487,1544,980,398,157,70.4,22.9,11.1,2487,1833,1965,646,665,79.5,77.6,22.9,1899,655.5,78.55,PASS,188076
188076,74a,1/5/2021,106.2,97.93,97,101.5,101.88,97.5,NA,102.94,106.2,109.49,115.84,105.33,103,109.29,116,NA,112.67,104.17,112.64,2655,1469,970,406,163,62.4,NA,10.5,2655,2053,2172,632,618,76.5,81.2,NA,2112.5,625,78.85,PASS,188076
188076,75,1/5/2021,101.6,98.47,100.3,100.25,100,99.53,100.39,100,101.6,92.69,98.45,105.17,107.83,103.71,117.43,100.39,95.57,106.5,110.57,2540,1477,1003,401,160,63.7,25.7,10.2,2540,1738,1846,631,647,72.6,82.2,25.7,1792,639,77.4,PASS,188076
188076,76,4/30/2021,102.76,99.87,97.8,98.75,101.25,105,94.53,101.96,102.76,96.43,106.77,97.17,107.83,106.71,108.43,94.53,101.6,102.5,107.57,2569,1498,978,395,162,67.2,24.2,10.4,2569,1808,2002,583,647,74.7,75.9,24.2,1905,615,75.3,PASS,188076
188076,77a,4/30/2021,101.88,99.33,99.1,99,101.88,102.03,96.48,101.96,101.88,110.03,115.41,102.33,107,106,102.71,96.48,112.72,104.67,104.36,2547,1490,991,396,163,65.3,24.7,10.4,2547,2063,2164,614,642,74.2,71.9,24.7,2113.5,628,73.05,PASS,188076
188076,78a,4/30/2021,97.8,99,106.3,98.75,97.5,99.22,103.52,99.02,97.8,94.88,101.01,104.83,110.33,94.43,102.14,103.52,97.95,107.58,98.29,2445,1485,1063,395,156,63.5,26.5,10.1,2445,1779,1894,629,662,66.1,71.5,26.5,1836.5,645.5,68.8,PASS,188076
188076,79,5/4/2021,100.68,100.33,98.2,101.75,99.38,99.06,101.17,99.02,100.68,96.8,97.49,100.83,103.33,105.29,103.86,101.17,97.15,102.08,104.57,2517,1505,982,407,159,63.4,25.9,10.1,2517,1815,1828,605,620,73.7,72.7,25.9,1821.5,612.5,73.2,PASS,188076
188076,80,5/4/2021,99.8,100.33,99.4,101.5,100.62,95.47,105.47,98.04,99.8,100,103.04,105.33,106.17,105.14,103.71,105.47,101.52,105.75,104.43,2495,1505,994,406,161,61.1,27,10,2495,1875,1932,632,637,73.6,72.6,27,1903.5,634.5,73.1,PASS,188076
188076,81,5/4/2021,99.12,102.47,98,100.75,103.12,94.06,107.03,97.35,99.12,94.72,100.96,107.5,109.5,102,103,107.03,97.84,108.5,102.5,2478,1537,980,403,165,60.2,27.4,9.93,2478,1776,1893,645,657,71.4,72.1,27.4,1834.5,651,71.75,PASS,188076
188076,82,5/5/2021,101.84,100.67,95.6,103.5,99.38,102.5,96.48,101.96,101.84,95.89,96.69,100.67,108.33,105.86,110.71,96.48,96.29,104.5,108.29,2546,1510,956,414,159,65.6,24.7,10.4,2546,1798,1813,604,650,74.1,77.5,24.7,1805.5,627,75.8,PASS,188076
188076,83,5/5/2021,101.2,100.8,96.1,104,98.12,102.19,98.05,100.98,101.2,98.67,97.87,104.83,111.17,98.71,105.71,98.05,98.27,108,102.21,2530,1512,961,416,157,65.4,25.1,10.3,2530,1850,1835,629,667,69.1,74,25.1,1842.5,648,71.55,PASS,188076
188076,84,5/5/2021,99.96,100.87,97.7,105.25,96.88,98.12,103.91,98.04,99.96,96.85,97.12,103.33,111.67,95.71,105.71,103.91,96.99,107.5,100.71,2499,1513,977,421,155,62.8,26.6,10,2499,1816,1821,620,670,67,74,26.6,1818.5,645,70.5,PASS,188076
