"","subjid","response"
"1","102-10101","responder"
"2","102-10103","responder"
"3","102-10608","responder"
"4","104-10404","responder"
"5","113-10701","nonresponder"
"6","115-10102","nonresponder"
"7","115-10201","responder"
"8","115-10202","responder"
"9","115-10305","responder"
"10","116-20301","responder"
"11","116-20307","nonresponder"
"12","116-20313","responder"
"13","120-10501","responder"
"14","120-20205","responder"
"15","120-20306","nonresponder"
"16","125-10304","responder"
"17","126-10303","nonresponder"
"18","126-10601","responder"
"19","135-10508","nonresponder"
"20","136-10507","responder"
"21","136-20113","responder"
"22","136-20119","responder"
"23","136-20202","nonresponder"
"24","136-20207","responder"
"25","136-20310","nonresponder"
"26","136-20318","responder"
"27","136-20501","responder"
"28","136-20503","nonresponder"
"29","137-20208","responder"
"30","138-10407","responder"
"31","138-10606","responder"
"32","138-20102","responder"
"33","138-20108","responder"
"34","138-20109","responder"
"35","138-20309","nonresponder"
"36","139-10402","responder"
"37","139-20303","responder"
"38","139-20312","nonresponder"
"39","140-10301","nonresponder"
"40","140-10605","responder"
"41","140-20308","responder"
"42","140-20315","responder"
"43","142-10401","responder"
"44","142-20319","nonresponder"
"45","151-20121","nonresponder"
"46","214-20117","responder"
