"","subjid","start_dose","end_dose","eot_date","eos_date","earlier_eos_eot","time_on_treatment","event"
"102-10303","102-10303","2019-09-17","2019-10-29","2019-12-3","2019-12-3","2019-12-03",78,1
"102-10753","102-10753","2021-02-24","2021-04-07",NA,"2021-4-22","2021-4-22",58,1
"113-10552","113-10552","2020-06-09","2020-07-21","2020-8-3","2020-8-31","2020-08-03",56,1
"113-10807","113-10807","2021-05-04","2021-05-18","2021-6-3","2021-6-8","2021-06-03",31,1
"115-10101","115-10101","2019-05-01","2019-07-10","2019-7-25","2020-1-7","2019-07-25",86,1
"115-10302","115-10302","2019-09-11","2019-10-23","2019-11-4","2019-11-6","2019-11-04",55,1
"115-10351","115-10351","2019-11-06","2019-12-18","2020-1-2","2020-1-2","2020-01-02",58,1
"115-10555","115-10555","2020-07-29","2020-08-12","2020-8-20","2020-8-28","2020-08-20",23,1
"115-10606","115-10606","2020-03-11","2020-04-22","2020-5-19","2020-5-19","2020-05-19",70,1
"115-10901","115-10901","2021-03-02","2021-04-13","2021-4-29","2021-4-29","2021-04-29",59,1
"115-20407","115-20407","2021-11-10","2021-12-08",NA,NA,NA,29,0
"115-20411","115-20411","2021-11-09","2021-12-21",NA,NA,NA,43,0
"115-20413","115-20413","2021-11-30","2021-12-14",NA,NA,NA,15,0
"120-10203","120-10203","2019-07-24","2019-09-04","2019-9-11","2020-2-11","2019-09-11",50,1
"120-10752","120-10752","2021-02-09","2021-03-23","2021-4-9","2021-4-21","2021-04-09",60,1
"120-10801","120-10801","2020-08-19","2021-12-27",NA,NA,NA,496,0
"120-20202","120-20202","2021-10-12","2021-12-20",NA,NA,NA,70,0
"120-20203","120-20203","2021-10-27","2021-12-08",NA,NA,NA,43,0
"120-20404","120-20404","2021-11-03","2021-12-21",NA,NA,NA,49,0
"120-20406","120-20406","2021-11-10","2021-12-21",NA,NA,NA,42,0
"120-21302","120-21302","2021-05-26","2021-09-16",NA,NA,NA,114,0
"120-21409","120-21409","2021-08-11","2021-12-14",NA,NA,NA,126,0
"121-10804","121-10804","2021-03-09","2021-04-20","2021-5-4","2021-7-16","2021-05-04",57,1
"121-20405","121-20405","2021-11-03","2021-11-03",NA,"2021-12-2","2021-12-2",30,1
"126-10401","126-10401","2019-10-23","2020-01-29","2020-2-11","2020-3-26","2020-02-11",112,1
"126-10605","126-10605","2020-03-10","2020-04-06","2020-4-20","2020-5-4","2020-04-20",42,1
"126-10653","126-10653","2020-12-22","2021-03-30","2021-4-13","2021-4-13","2021-04-13",113,1
"126-10705","126-10705","2020-06-16","2020-12-31","2021-1-14","2021-1-28","2021-01-14",213,1
"126-20101","126-20101","2021-12-08","2021-12-22",NA,NA,NA,15,0
"126-20102","126-20102","2021-12-21","2021-12-21",NA,NA,NA,1,0
"126-20408","126-20408","2021-11-16","2021-12-15",NA,NA,NA,30,0
"126-20409","126-20409","2021-11-16","2021-12-15",NA,NA,NA,30,0
"135-10803","135-10803","2020-09-01","2020-09-15","2020-11-12","2020-11-24","2020-11-12",73,1
"135-10806","135-10806","2021-04-21","2021-05-05","2021-6-3","2021-6-3","2021-06-03",44,1
"135-10853","135-10853","2021-06-16","2021-09-08",NA,NA,NA,85,0
"135-20502","135-20502","2021-11-17","2021-11-17",NA,NA,NA,1,0
"135-21504","135-21504","2021-06-22","2021-10-28",NA,NA,NA,129,0
"140-10402","140-10402","2019-10-30","2019-12-11","2019-12-23","2019-12-23","2019-12-23",55,1
"142-10554","142-10554","2020-07-07","2020-08-18","2020-9-2","2020-10-1","2020-09-02",58,1
"142-10652","142-10652","2020-12-01","2021-02-22","2021-3-8","2021-3-30","2021-03-08",98,1
"142-10751","142-10751","2021-01-26","2021-02-09",NA,"2021-3-3","2021-3-3",37,1
"142-10851","142-10851","2021-04-13","2021-09-01","2021-9-28","2021-10-18","2021-09-28",169,1
"142-20201","142-20201","2021-10-06","2021-12-29",NA,NA,NA,85,0
"151-10603","151-10603","2020-02-25","2020-04-07","2020-4-21","2020-4-21","2020-04-21",57,1
"151-10701","151-10701","2020-05-05","2020-06-16","2020-6-30","2020-6-30","2020-06-30",57,1
"151-10706","151-10706","2020-06-24","2020-08-05","2020-8-25","2020-9-1","2020-08-25",63,1
"151-10902","151-10902","2021-03-10","2021-05-18","2021-6-1","2021-6-1","2021-06-01",84,1
"165-10353","165-10353","2019-12-04","2020-04-09","2020-4-16","2020-4-16","2020-04-16",135,1
"165-10403","165-10403","2019-11-05","2021-12-30",NA,NA,NA,787,0
"165-10451","165-10451","2020-02-04","2020-06-23","2020-7-16","2020-8-18","2020-07-16",164,1
"165-10453","165-10453","2020-03-24","2020-06-30","2020-7-14","2020-7-22","2020-07-14",113,1
"165-10454","165-10454","2020-03-25","2020-04-22","2020-4-30","2020-5-4","2020-04-30",37,1
"165-10503","165-10503","2019-12-18","2020-01-15","2020-1-29","2020-2-20","2020-01-29",43,1
"165-10553","165-10553","2020-06-16","2020-06-30",NA,"2020-7-9","2020-7-9",24,1
"165-10601","165-10601","2020-02-12","2020-04-22","2020-5-7","2020-5-26","2020-05-07",86,1
"165-10703","165-10703","2020-05-20","2020-07-15","2020-7-24","2020-9-1","2020-07-24",66,1
"165-10805","165-10805","2021-03-29","2021-10-18","2021-11-18","2021-11-18","2021-11-18",235,1
"165-21507","165-21507","2021-08-04","2021-09-15",NA,"2021-12-29","2021-12-29",148,1
"181-10404","181-10404","2019-11-12","2019-12-24","2020-1-7","2020-1-20","2020-01-07",57,1
"181-10502","181-10502","2019-12-16","2020-07-13","2020-7-27","2020-12-19","2020-07-27",225,1
"181-10602","181-10602","2020-02-19","2021-12-21",NA,NA,NA,672,0
"181-10702","181-10702","2020-05-12","2020-11-10","2020-11-24","2020-12-8","2020-11-24",197,1
"181-10903","181-10903","2021-03-17","2021-07-07","2021-7-21",NA,"2021-7-21",127,1
"181-20402","181-20402","2021-10-19","2021-12-28",NA,NA,NA,71,0
"212-10352","212-10352","2019-12-03","2020-01-14","2020-1-31","2020-1-31","2020-01-31",60,1
"212-10452","212-10452","2020-02-18","2020-03-31","2020-4-13","2020-6-20","2020-04-13",56,1
"212-10556","212-10556","2020-09-15","2020-10-13","2020-10-27","2020-11-5","2020-10-27",43,1
"212-10604","212-10604","2020-03-03","2020-03-03","2020-3-10","2020-6-11","2020-03-10",8,1
"212-10852","212-10852","2021-04-27","2021-05-11",NA,"2021-5-24","2021-5-24",28,1
"213-10301","213-10301","2019-09-04","2019-12-04","2019-12-31","2020-2-4","2019-12-31",119,1
"213-10505","213-10505","2020-01-15","2020-01-29","2020-2-19","2020-3-1","2020-02-19",36,1
"214-10504","214-10504","2020-01-08","2020-02-05","2020-3-12","2020-3-12","2020-03-12",65,1
"214-10557","214-10557","2020-09-29","2020-12-08","2020-12-22","2021-4-29","2020-12-22",85,1
"214-10651","214-10651","2020-11-04","2020-12-02","2020-12-29","2021-5-9","2020-12-29",56,1
"214-10704","214-10704","2020-06-10","2020-07-21","2020-8-1","2020-8-4","2020-08-01",53,1
"214-20501","214-20501","2021-10-26","2021-11-09",NA,NA,NA,15,0
"214-21101","214-21101","2021-05-25","2021-06-08",NA,"2021-7-20","2021-7-20",57,1
"214-21203","214-21203","2021-06-02","2021-06-02",NA,"2021-6-21","2021-6-21",20,1
"214-21206","214-21206","2021-07-20","2021-08-03",NA,"2021-8-24","2021-8-24",36,1
"214-21208","214-21208","2021-08-03","2021-08-17",NA,"2021-9-8","2021-9-8",37,1
"215-10201","215-10201","2019-06-04","2019-06-18","2019-7-11","2019-11-25","2019-07-11",38,1
"215-10202","215-10202","2019-07-17","2019-08-28","2019-9-9","2020-2-8","2019-09-09",55,1
"215-10501","215-10501","2019-12-09","2019-12-09","2020-1-10","2020-1-10","2020-01-10",33,1
"215-10551","215-10551","2020-05-06","2020-05-06","2020-5-20","2020-5-31","2020-05-20",15,1
"215-10607","215-10607","2020-03-18","2020-06-17","2020-6-25","2020-10-10","2020-06-25",100,1
"215-10802","215-10802","2020-08-26","2020-12-02","2020-12-23","2021-2-7","2020-12-23",120,1
"215-20403","215-20403","2021-10-27","2021-10-27","2021-11-18",NA,"2021-11-18",23,1
"215-20412","215-20412","2021-11-16","2021-12-14",NA,NA,NA,29,0
